{
    "CardHolderName": "PLAINTEXT",
    "Type": [
        "Visa",
        "Master Card",
        "American Express",
        "Diners Club",
        "Carte Blanche",
        "Discover",
        "JCB",
        "Mastero",
        "Visa Electron",
        "Laser",
        "Union Pay"
    ],
    "Number": "SECRET",
    "VerificationNumber": "SECRET",
    "ValidFrom": "SECRET",
    "ExpiryDate": "SECRET",
    "ContactInformation": {
        "IssuingBank": "PLAINTEXT",
        "Phone_Local": "PLAINTEXT",
        "Phone_TollFree": "PLAINTEXT",
        "Phone_International": "PLAINTEXT",
        "Website": "PLAINTEXT"
    },
    "AdditionalInformation": {
        "IssuingBank": "PLAINTEXT",
        "Phone_Local": "PLAINTEXT",
        "Phone_TollFree": "PLAINTEXT",
        "Phone_International": "PLAINTEXT",
        "Website": "PLAINTEXT"
    }
}
